{
  "id": "d9250ffc-5c36-4272-898b-ad9854e6f936",
  "name": "petstore",
  "values": [
    {
      "key": "url",
      "value": "http://petstore.swagger.io/v2",
      "enabled": true,
      "type": "text"
    },
    {
      "key": "path",
      "value": "/api/users/2",
      "enabled": true,
      "type": "text"
    },
    {
      "key": "name",
      "value": "morpheus",
      "enabled": true,
      "type": "text"
    },
    {
      "key": "job",
      "value": "zion resident",
      "enabled": true,
      "type": "text"
    }
  ],
  "_postman_variable_scope": "environment",
  "_postman_exported_at": "2018-06-04T09:19:46.972Z",
  "_postman_exported_using": "Postman/6.1.3"
}